{
  "builds": [
    {
      "name": "jvb-eu-central-1",
      "builder_type": "amazon-ebs",
      "build_time": 1586772262,
      "files": null,
      "artifact_id": "eu-central-1:ami-09d62b70483b712c9",
      "packer_run_uuid": "e475ae3f-2c51-f105-018d-82b2da0cf351",
      "custom_data": null
    },
    {
      "name": "jvb-ap-south-1",
      "builder_type": "amazon-ebs",
      "build_time": 1586772316,
      "files": null,
      "artifact_id": "ap-south-1:ami-0e9efecde9bb60dfa",
      "packer_run_uuid": "e475ae3f-2c51-f105-018d-82b2da0cf351",
      "custom_data": null
    },
    {
      "name": "jvb-us-east-2",
      "builder_type": "amazon-ebs",
      "build_time": 1586772344,
      "files": null,
      "artifact_id": "us-east-2:ami-0c083a418e7c1a640",
      "packer_run_uuid": "e475ae3f-2c51-f105-018d-82b2da0cf351",
      "custom_data": null
    }
  ],
  "last_run_uuid": "e475ae3f-2c51-f105-018d-82b2da0cf351"
}